Designator,Comment,Value,Description,Footprint,LibRef,Quantity,Layer

"C3, C4, C10, C11, C18, C19, C20, C21, C22, C23, C24, C31, C32, C33, C35, C36, C37, C38, C39, C42, C43, C44, C45, C77, C78, C79","470nF","470nF","","CAPC1005N","Capacitor","26","None"
"C12, C13, C16, C17, C25, C26, C29, C30, C40, C41, C46, C47","4.7uF","4.7uF","","CAPC1608N","Capacitor","12","None"
"C14, C15, C27, C28, C34, C48, C49","47uF","47uF","","CAPC2012N","Capacitor","7","None"
"C50, C51","100nF","100nF","","CAPC1005N","Capacitor","2","None"
"FB2, FB3, FB4","120","","","INDC1005N","Ferrite","3","None"
"R1, R2","330","330","","RESC1005N","Resistor","2","None"
"R4, R5, R6, R8","4.7K","4.7K","","RESC1005N","Resistor","4","None"
"U1","XC7AxxT-nFTG256C","","Xilinx Artix-7 FPGA","BGA256C100P16X16_1700X1700X155","XC7AxxT-nFTG256C","1","None"
"U3","N25Q032A13ESC40F","","","SOIC127P600-8CN","Memory Flash SPI","1","None"
